{
  "cells_properties":  {
    "deployEndpoint": "",
    "i18nPath": "locales/",
    "componentsPath": "./components/",
    "templatesPath": "./composerMocks/",
    "pages": ["home","login","accounts","movements","user","account","movement","transfer","forgot","changepassword"],
    "pagesPath": "./pages/",
    "appId": "",
    "debug": true,
    "mocks": true,
    "coreCache": true,
    "routerLog": false,
    "cordovaScript" : "cordova.js",
    "prplLevel": 1,
    "initialBundle": ["home-page.html"],
    "transpile": true,
    "transpileExclude": [ "cells-rxjs", "webcomponentsjs", "moment","d3", "bgadp*" ]
  },
  "app_properties": {
    "urlEasyMoneyBankAuthServices":"https://emb-authservices-easy-money-bank.a3c1.starter-us-west-1.openshiftapps.com",
    "urlEasyMoneyBankBankServices":"https://emb-bankservices-easy-money-bank.a3c1.starter-us-west-1.openshiftapps.com",
    "uriEndpointWeb":"/easymoneybank"
  }
}